Machine learning for policy analysis
…
starwars[1,1] #alternative indexing: extract the element of row 1, col 1

## # A tibble: 1 × 1
##   name          
##   <chr>         
## 1 Luke Skywalker

starwars$name[2:4] # elements 2, 3, 4 of "name" vector

## [1] "C-3PO"       "R2-D2"       "Darth Vader"

starwars[,1] #extract all elements from column 1

## # A tibble: 87 × 1
##    name              
##    <chr>             
##  1 Luke Skywalker    
##  2 C-3PO             
##  3 R2-D2             
##  4 Darth Vader       
##  5 Leia Organa       
##  6 Owen Lars         
##  7 Beru Whitesun lars
##  8 R5-D4             
##  9 Biggs Darklighter 
## 10 Obi-Wan Kenobi    
## # … with 77 more rows
…
## # A tibble: 1 × 14
##   name         height  mass hair_…¹ skin_…² eye_c…³ birth…⁴ sex   gender homew…⁵
##   <chr>         <int> <dbl> <chr>   <chr>   <chr>     <dbl> <chr> <chr>  <chr>  
## 1 Luke Skywal…    172    77 blond   fair    blue         19 male  mascu… Tatooi…
## # … with 4 more variables: species <chr>, films <list>, vehicles <list>,
## #   starships <list>, and abbreviated variable names ¹​hair_color, ²​skin_color,
## #   ³​eye_color, ⁴​birth_year, ⁵​homeworld

starwars$height[starwars$height<150] # returns a logical vector TRUE for elements >150 in height vector

##  [1]  96  97  66  NA  88 137 112  94 122  79  96  NA  NA  NA  NA  NA

starwars[c('height', 'name')] #returns c(oncatenated) vectors

## # A tibble: 87 × 2
##    height name              
##     <int> <chr>             
##  1    172 Luke Skywalker    
##  2    167 C-3PO             
##  3     96 R2-D2             
##  4    202 Darth Vader       
##  5    150 Leia Organa       
##  6    178 Owen Lars         
##  7    165 Beru Whitesun lars
##  8     97 R5-D4             
##  9    183 Biggs Darklighter 
## 10    182 Obi-Wan Kenobi    
## # … with 77 more rows
…
# for loops
class(starwars$height) # if it is not integer or numeric, then transform it! 

## [1] "integer"

starwars$height <- as.numeric(as.character(starwars$height)) # transforming the height vector to numeric
starwars$height_judge = NA # if you're using a new object within a for loop, make sure you initialize it before running it

for (i in 1:length(starwars$height)) {
    
    starwars$height_judge[i] <- ifelse(starwars$height[i]<100, "Short", "Tall")
}
print(starwars[c("name", "height_judge", "height")])

## # A tibble: 87 × 3
##    name               height_judge height
##    <chr>              <chr>         <dbl>
##  1 Luke Skywalker     Tall            172
##  2 C-3PO              Tall            167
##  3 R2-D2              Short            96
##  4 Darth Vader        Tall            202
##  5 Leia Organa        Tall            150
##  6 Owen Lars          Tall            178
##  7 Beru Whitesun lars Tall            165
##  8 R5-D4              Short            97
##  9 Biggs Darklighter  Tall            183
## 10 Obi-Wan Kenobi     Tall            182
## # … with 77 more rows
…
